Version   "10/31/95"
target    390
header    <MVT.hdr>
#include <..\..\include\emvsizes.h>
#include <..\..\include\gdMVT.h>

data MVT
{
( -1,                		/* SchemeReference */
  -1,                		/* IssuerReference */
   1,                		/* TRMDataPresent */
   1000,                	/* EMVFloorLimit */
   500,                		/* EMVRSThreshold */
   10,                		/* EMVTargetRSPercent */
   30,                		/* EMVMaxTargetRSPercent */
   1,				/* MerchantForcedOnline */
   1,				/* BlackListedCardSpprt */
  "D84000A800",	  		/* "TAC Default"      */
  "0010000000",			/* "TAC Denial"       */
  "D84000F800", 		/* "TAC Online"       */
  "9F1A0295059A039C01",		/* "Default TDOL"     */
  "9f3704",			/* "Default DDOL"     */
  0,				/* "FallbackAllowed "  */
 -1,                		/* NextRecord */
  0,                		/* EMVCounter */
  0,				/* App Selection Flag */
  "0840",                	/* EMVTermCountryCode */
  "0840",                	/* EMVTermCurrencyCode */
  2,				/* Terminal Currency Exponent 5F36 */
  "e0f8c8",                	/* EMVTermCapabilities */
  "F000F0A001",                	/* EMVTermAddCapabilities */
  "22",                		/* EMVTermType */
  "2701",			/* "EMV Merchant Category Code"    */
  "R",				/* "EMV Terminal Category Code"    */
  0,				/*  Flag to allow the application to modify the candidate list. 0 = Not allowed,1= Allowed*/
  0,				/*  "SHORT RFU1"  */
  0,				/*  "SHORT RFU2"  */
  0,				/*  "SHORT RFU3"  */
  "OW1H4U3tnF00xA01Y",		/*  "STRING RFU1"  */
  "",				/*  "STRING RFU2"  */
  "",				/*  "STRING RFU3"  */
)

/* Record 1 - Visa Scheme */
(
 -1,				/* "Scheme Reference" */
 -1,				/* "Issuer Reference" */
  1,				/* "TRM Data Present" */
  10000,			/* "Floor Limit"      */
  500,				/* "RS Threshold"     */
  10,				/* "Target RS %"      */
  30,				/* "Max Target RS %"  */
  1,				/* MerchantForcedOnline */
  1,				/* BlackListedCardSpprt */
  "D84000A812",	  		/* "TAC Default"      */
  "0010000000",			/* "TAC Denial"       */
  "D84000F800", 		/* "TAC Online"       */
  "9F1A0295059A039C01",		/* "Default TDOL"     */
  "9f3704",			/* "Default DDOL"     */
  0,				/* "FallbackAllowed "  */
  -1,                		/* NextRecord */
  0,                		/* EMVCounter */
  0,				/* Automatic Application Selection */
  "",                           /* "EMV Country Code"              */
  "",                           /* "EMV Currency Code"             */
  2,				/* Terminal Currency Exponent 5F36 */
  "e0f8c8",                     /* "EMV Terminal Capabilities"     */
  "",                           /* "EMV Add Terminal Capabilities" */
  "",                           /* "EMV Terminal Type"             */
  "",                           /* "EMV Merchant Category Code"    */
  "R",				/* "EMV Terminal Category Code"    */
  0,				/*  Flag to allow the application to modify the candidate list. 0 = Not 		           			allowed,1= Allowed*/
  0,				/*  "SHORT RFU1  */
  0,				/*  "SHORT RFU2  */
  0,				/*  "SHORT RFU3  */
  "",				/*  "STRING RFU1  */
  "",				/*  "STRING RFU2  */
  "",				/*  "STRING RFU3  */
)

/* Record 2 - Master Card Scheme */
(
 -1,				/* "Scheme Reference" */
 -1,				/* "Issuer Reference" */
  1,				/* "TRM Data Present" */
  10000,			/* "Floor Limit"      */
  500,				/* "RS Threshold"     */
  10,				/* "Target RS %"      */
  30,				/* "Max Target RS %"  */
  1,				/* MerchantForcedOnline */
  1,				/* BlackListedCardSpprt */
  "D84000A812",	  		/* "TAC Default"      */
  "0010000000",			/* "TAC Denial"       */
  "D84000F800", 		/* "TAC Online"       */
  "9F1A0295059A039C01",		/* "Default TDOL"     */
  "9f3704",			/* "Default DDOL"     */
  0,				/* "FallbackAllowed "  */
  -1,                		/* NextRecord */
  0,                		/* EMVCounter */
  0,				/* Automatic Application Selection */
  "",                           /* "EMV Country Code"              */
  "0056",                       /* "EMV Currency Code"             */
  2,				/* Terminal Currency Exponent 5F36 */
  "e0f8c8",                     /* "EMV Terminal Capabilities"     */
  "",                           /* "EMV Add Terminal Capabilities" */
  "",                           /* "EMV Terminal Type"             */
  "",                           /* "EMV Merchant Category Code"    */
  "R",				/*	"EMV Terminal Category Code"    */
   0,				/*  Flag to allow the application to modify the candidate list. 0 = Not 		           			allowed,1= Allowed*/
   0,				/*  "SHORT RFU1  */
   0,				/*  "SHORT RFU2  */
   0,				/*  "SHORT RFU3  */
   "",				/*  "STRING RFU1  */
   "",				/*  "STRING RFU2  */
   "",				/*  "STRING RFU3  */
)

/* Record 3 - JCB */

(-1,				/* "Scheme Reference" */
 -1,				/* "Issuer Reference" */
  1,                    	/* "TRM Data Present" */
  1000,				/* "Floor Limit"      */
  500,				/* "RS Threshold"     */
  10,				/* "Target RS %"      */
  30,				/* "Max Target RS %"  */
  1,				/* MerchantForcedOnline */
  1,				/* BlackListedCardSpprt */
  "FC6024A800",			/* "TAC Default FC6024A800"*/
  "0010000000",			/* "TAC Denial"       */
  "FC60ACF800",			/* "TAC Online"       */
  "",				/* "Default TDOL"     */
  "9F37",				/* "Default DDOL"     */
  0,				/* "FallbackAllowed "  */
  -1,                		/* NextRecord */
  0,                		/* EMVCounter */
  0,				/* Application Selection */
  "",                   	/* "EMV Country Code"              */
  "",                   	/* "EMV Currency Code"             */
   0,				/* Terminal Currency Exponent 5F36 */
  "",                   	/* "EMV Terminal Capabilities"     */
  "",                   	/* "EMV Add Terminal Capabilities" */
  "",                   	/* "EMV Terminal Type"             */
  "",                   	/* "EMV Merchant Category Code"    */
  "R",				/* "EMV Terminal Category Code"    */
   0,				/*  Flag to allow the application to modify the candidate list. 0= Not 						          allowed,1= Allowed*/
   0,				/*  "SHORT RFU1  */
   0,				/*  "SHORT RFU2  */
   0,				/*  "SHORT RFU3  */
  "",				/*  "STRING RFU1  */
  "",				/*  "STRING RFU2  */
  "",				/*  "STRING RFU3  */
)

/* Record 4- Interac */
( -1,                		/* SchemeReference */
  -1,                		/* IssuerReference */
   1,                		/* TRMDataPresent */
   0,                		/* EMVFloorLimit */
   500,                		/* EMVRSThreshold */
   10,                		/* EMVTargetRSPercent */
   30,                		/* EMVMaxTargetRSPercent */
   1,				/* MerchantForcedOnline */
   1,				/* BlackListedCardSpprt */
  "FC50D8A8F0",	  		/* "TAC Default"      */
  "FC50D8A800",			/* "TAC Denial"       */
  "FCF8E4B070", 		/* "TAC Online"       */
  "",				/* "Default TDOL"     */
  "",				/* "Default DDOL"     */
  0,				/* "FallbackAllowed "  */
 -1,                		/* NextRecord */
  0,                		/* EMVCounter */
  0,				/* App Selection Flag */
  "0124",                	/* EMVTermCountryCode */
  "0124",                	/* EMVTermCurrencyCode */
  2,				/* Terminal Currency Exponent 5F36 */
  "",                		/* EMVTermCapabilities */
  "",                		/* EMVTermAddCapabilities */
  "",                		/* EMVTermType */
  "",				/* "EMV Merchant Category Code"    */
  "R",				/* "EMV Terminal Category Code"    */
  0,				/*  Flag to allow the application to modify the candidate list. 0 = Not allowed,1= Allowed*/
  0,				/*  "SHORT RFU1"  */
  0,				/*  "SHORT RFU2"  */
  0,				/*  "SHORT RFU3"  */
  "",				/*  "STRING RFU1"  */
  "",				/*  "STRING RFU2"  */
  "",				/*  "STRING RFU3"  */
)

}