-------------------------------------------------------------------------------
Verix eVo SDK Version: 1.8.0.8
Release Date: 11-January-2013
-------------------------------------------------------------------------------

-------------------------------------------------------------------------------
Introduction
-------------------------------------------------------------------------------
This is the installation package for Verix eVo SDK.

-------------------------------------------------------------------------------
Minimum Requirements
-------------------------------------------------------------------------------
Software Requirements:
----------------------
    Verix V SDK  3.7.1 or later
    Verix eVo (EOS11) 1.8.0 or later
    VeriFone's RVDS 4.0 package which includes
        Real View Compiler Ver 4.0 and Debugger Ver 4.0

-------------------------------------------------------------------------------
Verix eVo Package Items
-------------------------------------------------------------------------------
1) include
   - contains the header files to build applications that use Verix eVo.
2) lib
   - contains the library object files required to build applications that use
     Verix eVo.

-------------------------------------------------------------------------------
SDK Installation
-------------------------------------------------------------------------------
- Unzip the provided file to your Verix eVo SDK folder.

-------------------------------------------------------------------------------
Change History
-------------------------------------------------------------------------------
-------------------------------------------------------------------------------
Version 1.8.0.8
-------------------------------------------------------------------------------
- Added support for using EOS 1.8.0 for Vx680 3G terminal.

-------------------------------------------------------------------------------
Version 1.7.1.0
-------------------------------------------------------------------------------
- First release of Verix eVo SDK as separate package to the Verix eVo package.
